<?xml version="1.0" standalone="no"?>
<!DOCTYPE svg PUBLIC "-//W3C//DTD SVG 20010904//EN"
 "http://www.w3.org/TR/2001/REC-SVG-20010904/DTD/svg10.dtd">
<svg version="1.0" xmlns="http://www.w3.org/2000/svg"
 width="700.000000pt" height="700.000000pt" viewBox="0 0 700.000000 700.000000"
 preserveAspectRatio="xMidYMid meet">
<metadata>
Created by potrace 1.11, written by Peter Selinger 2001-2013
</metadata>
<g transform="translate(0.000000,700.000000) scale(0.100000,-0.100000)"
fill="#000000" stroke="none">
<path d="M730 5281 c-198 -40 -342 -119 -479 -260 -111 -116 -197 -274 -227
-416 -2 -11 -7 -31 -11 -45 -4 -14 -9 -477 -10 -1030 -3 -1105 -3 -1092 58
-1251 104 -269 325 -468 614 -551 l80 -22 2710 -3 c2905 -2 2772 -4 2925 47
78 26 176 78 246 130 49 37 164 146 164 156 0 3 11 16 24 31 54 58 124 216
163 368 4 17 8 487 9 1045 2 943 1 1021 -15 1100 -37 171 -119 326 -242 450
-57 59 -176 150 -195 150 -4 0 -15 6 -23 14 -19 16 -163 72 -206 80 -16 3 -55
9 -85 15 -36 6 -994 10 -2735 10 -2498 -1 -2686 -2 -2765 -18z"/>
</g>
</svg>
